$date
	Wed Nov 25 21:28:12 2020
$end
$version
	Icarus Verilog
$end
$timescale
	1s
$end
$scope module ex_3_tb $end
$var wire 1 ! out $end
$var reg 2 " in [1:0] $end
$var integer 32 # i [31:0] $end
$scope module ex $end
$var wire 1 $ A $end
$var wire 1 % B $end
$var wire 1 ! fa $end
$upscope $end
$upscope $end
$enddefinitions $end
#0
$dumpvars
0%
0$
b0 #
b0 "
1!
$end
#10
1%
b1 "
b1 #
#20
1$
0%
b10 "
b10 #
#30
1%
b11 "
b11 #
#40
